{
    "phrases":{
        "ui":{
            "tabs":{
                "standalone":{
                    "flips":"Flips",
                    "history":"Historique",
                    "stats":"Stats"
                },
                "f4":{
                    "flips":"FLIPS",
                    "history":"HISTORIQUE",
                    "stats":"STATS"
                }
            },
            "flips":{
                "title":":flips: active flips",
                "createFlip":"Créer coinflip",
                "maxFlipsReached":"Vous pouvez avoir au maximum :number: coinflips actifs!",
                "row":{
                    "join":"Rejoindre",
                    "delete":"Supprimer",
                    "cantAfford":"Vous ne pouvez pas vous permettre d'entrer dans ce coinflip! Vous avez besoin :number:"
                },
                "create":{
                    "title":"Créer un coinflip",
                    "howMuch":"Combien aimeriez-vous parier?",
                    "currency":"Devise",
                    "announceCreation":"Annoncer la création?",
                    "announceWinner":"Annoncer le gagnant?",
                    "timeLimit":{
                        "msg":"Limite de temps",
                        "time":":nombre: min"
                    },
                    "create":"Créer",
                    "no":"Non",
                    "yes":"Oui"
                },
                "game":{
                    "countdown":"Coinflip - Retourner :number:",
                    "flipping":"Coinflip - Retourner",
                    "blue":"Bleu",
                    "red":"Rouge"
                }
            },
            "history":{
                "title":"Dernier :flips: coinflips",
                "won":"Gagné",
                "lost":"Perdu"
            }
        },
        "chat":{
            "done":":gagnant: a gagné :money: dans un coinflip contre :loser:",
            "created":":creator: a crée un coinflip de :money:",
            "createdNotification":"Coinflip crée avec ID :id:",
            "won":"Vous avez gagné :money: grâce coinflip!",
            "deleted":{
                "timeLimit":"Votre coinflip avec ID :id: a atteint sa limite de temps. Vous avez été remboursé :money:",
                "user":"Vous avez supprimé votre coinflip avec with ID :id:. Vous avez été remboursé :money:"
            }
        }
    }
}